CaseStudy
…
Term Frequency

seinfeld_words <- scripts %>%
  unnest_tokens(word, Dialogue) %>%
  group_by(Season) %>%
  count(word, SEID, EpisodeNo, Season, sort = T) %>% 
  ungroup()

seinfeld_words

## # A tibble: 138,719 x 5
##    Season word  SEID   EpisodeNo     n
##    <fct>  <chr> <chr>  <fct>     <int>
##  1 1      you   S01E01 1           277
##  2 9      the   S09E23 23          250
##  3 5      you   S05E18 18          234
##  4 5      the   S05E18 18          228
##  5 1      the   S01E01 1           220
##  6 9      you   S09E23 23          217
##  7 1      i     S01E01 1           216
##  8 5      i     S05E18 18          202
##  9 9      to    S09E23 23          196
## 10 3      you   S03E22 22          189
## # ... with 138,709 more rows
…
seasons_dtm <- season_word_counts %>% 
  cast_dtm(Season, word, n)
# seasons_dtm

seasons_lda <- LDA(seasons_dtm, k = 9, control = list(seed = 1234))
seasons_lda  

## A LDA_VEM topic model with 9 topics.

# per-topic-per-word probabilities  
seasons_topics <- tidy(seasons_lda, matrix = "beta")
seasons_topics

## # A tibble: 168,318 x 3
##    topic term     beta
##    <int> <chr>   <dbl>
##  1     1 jerry 0.0153 
##  2     2 jerry 0.0195 
##  3     3 jerry 0.00313
##  4     4 jerry 0.0127 
##  5     5 jerry 0.0188 
##  6     6 jerry 0.0155 
##  7     7 jerry 0.0141 
##  8     8 jerry 0.0219 
##  9     9 jerry 0.0139 
## 10     1 yeah  0.00869
## # ... with 168,308 more rows
…
Per-document-per-topic probabilities

seasons_doc_topic_probabilities <- tidy(seasons_lda, matrix = "gamma")
seasons_doc_topic_probabilities

## # A tibble: 81 x 3
##    document topic       gamma
##    <chr>    <int>       <dbl>
##  1 1            1 1.000      
##  2 2            1 1.000      
##  3 3            1 0.000000823
##  4 4            1 0.000000722
##  5 5            1 0.000000718
##  6 6            1 0.000000777
##  7 7            1 0.000000669
##  8 8            1 0.000000715
##  9 9            1 0.000000694
## 10 1            2 0.00000302 
## # ... with 71 more rows
…
